<?xml version="1.0" encoding="UTF-8" standalone="no"?>
<!-- Created with Inkscape (http://www.inkscape.org/) -->

<svg
   xmlns:dc="http://purl.org/dc/elements/1.1/"
   xmlns:cc="http://creativecommons.org/ns#"
   xmlns:rdf="http://www.w3.org/1999/02/22-rdf-syntax-ns#"
   xmlns:svg="http://www.w3.org/2000/svg"
   xmlns="http://www.w3.org/2000/svg"
   xmlns:sodipodi="http://sodipodi.sourceforge.net/DTD/sodipodi-0.dtd"
   xmlns:inkscape="http://www.inkscape.org/namespaces/inkscape"
   width="128mm"
   height="128mm"
   viewBox="0 0 128 128"
   version="1.1"
   id="svg8"
   inkscape:version="0.92+devel unknown"
   sodipodi:docname="icon_source.svg"
   inkscape:export-filename="/home/mike/workspace/wire-hobo-chrome/icons/icon_128.png"
   inkscape:export-xdpi="25.4"
   inkscape:export-ydpi="25.4">
  <defs
     id="defs2" />
  <sodipodi:namedview
     id="base"
     pagecolor="#ffffff"
     bordercolor="#666666"
     borderopacity="1.0"
     inkscape:pageopacity="0.0"
     inkscape:pageshadow="2"
     inkscape:zoom="0.49497475"
     inkscape:cx="-37.66918"
     inkscape:cy="141.68979"
     inkscape:document-units="mm"
     inkscape:current-layer="layer1"
     showgrid="false"
     inkscape:window-width="1920"
     inkscape:window-height="1058"
     inkscape:window-x="0"
     inkscape:window-y="0"
     inkscape:window-maximized="1"
     inkscape:document-rotation="0" />
  <metadata
     id="metadata5">
    <rdf:RDF>
      <cc:Work
         rdf:about="">
        <dc:format>image/svg+xml</dc:format>
        <dc:type
           rdf:resource="http://purl.org/dc/dcmitype/StillImage" />
        <dc:title />
      </cc:Work>
    </rdf:RDF>
  </metadata>
  <g
     inkscape:label="Layer 1"
     inkscape:groupmode="layer"
     id="layer1"
     transform="translate(0,-169)">
    <path
       sodipodi:type="star"
       id="path3686"
       sodipodi:sides="8"
       sodipodi:cx="64"
       sodipodi:cy="233"
       sodipodi:r1="62.249191"
       sodipodi:r2="51.757568"
       sodipodi:arg1="1.5707963"
       sodipodi:arg2="1.9634954"
       inkscape:flatsided="false"
       inkscape:rounded="0"
       inkscape:randomized="0"
       d="M 64.000002,295.24919 44.193236,280.81776 19.983176,277.01683 16.182242,252.80676 1.7508087,233 16.182242,213.19324 l 3.800932,-24.21006 24.210062,-3.80094 19.806762,-14.43143 19.806766,14.43143 24.210056,3.80093 3.80094,24.21007 14.43143,19.80676 -14.43143,19.80676 -3.80093,24.21006 -24.210066,3.80094 z"
       style="fill:#4b3e66;fill-opacity:1;stroke:#bfabe0;stroke-width:2.45354939;stroke-miterlimit:4;stroke-dasharray:none;stroke-opacity:0.72803348" />
    <path
       style="fill:#b2ff46;fill-opacity:1;stroke:#75d046;stroke-width:9.21277332;stroke-miterlimit:4;stroke-dasharray:none;stroke-opacity:0.72803348"
       d="M 241.89062 89.65625 L 156.68359 177.27344 L 70.583984 264.04297 L 176.5332 263.77148 L 176.5332 372.91016 L 307.24609 372.91016 L 307.24609 263.77148 L 413.19531 264.04297 L 326.69336 176.86523 L 241.89062 89.65625 z "
       transform="matrix(0.26458333,0,0,0.26458333,0,169)"
       id="path4497" />
  </g>
</svg>
